Quartus/simulation/qsim/ESSA_Assignment.msim.vcd
$comment
	File created using the following command:
		vcd file ESSA_Assignment.msim.vcd -direction
$end
$date
	Mon Sep 07 16:07:08 2020
$end
$version
	ModelSim Version 2020.1
$end
$timescale
	1ps
$end

$scope module vga_vlg_vec_tst $end
$var reg 1 ! clk $end
$var wire 1 " CounterX [9] $end
$var wire 1 # CounterX [8] $end
$var wire 1 $ CounterX [7] $end
$var wire 1 % CounterX [6] $end
$var wire 1 & CounterX [5] $end
$var wire 1 ' CounterX [4] $end
$var wire 1 ( CounterX [3] $end
$var wire 1 ) CounterX [2] $end
$var wire 1 * CounterX [1] $end
$var wire 1 + CounterX [0] $end
$var wire 1 , CounterY [9] $end
$var wire 1 - CounterY [8] $end
$var wire 1 . CounterY [7] $end
$var wire 1 / CounterY [6] $end
$var wire 1 0 CounterY [5] $end
$var wire 1 1 CounterY [4] $end
$var wire 1 2 CounterY [3] $end
$var wire 1 3 CounterY [2] $end
$var wire 1 4 CounterY [1] $end
$var wire 1 5 CounterY [0] $end
$var wire 1 6 inDisplayArea $end
$var wire 1 7 pixel_clock $end
$var wire 1 8 vga_b $end
$var wire 1 9 vga_g $end
$var wire 1 : vga_h_sync $end
$var wire 1 ; vga_r $end
$var wire 1 < vga_v_sync $end

$scope module i1 $end
$var wire 1 = gnd $end
$var wire 1 > vcc $end
$var wire 1 ? unknown $end
$var tri1 1 @ devclrn $end
$var tri1 1 A devpor $end
$var tri1 1 B devoe $end
$var wire 1 C vga_h_sync~output_o $end
$var wire 1 D vga_v_sync~output_o $end
$var wire 1 E vga_r~output_o $end
$var wire 1 F vga_g~output_o $end
$var wire 1 G vga_b~output_o $end
$var wire 1 H pixel_clock~output_o $end
$var wire 1 I inDisplayArea~output_o $end
$var wire 1 J CounterX[0]~output_o $end
$var wire 1 K CounterX[1]~output_o $end
$var wire 1 L CounterX[2]~output_o $end
$var wire 1 M CounterX[3]~output_o $end
$var wire 1 N CounterX[4]~output_o $end
$var wire 1 O CounterX[5]~output_o $end
$var wire 1 P CounterX[6]~output_o $end
$var wire 1 Q CounterX[7]~output_o $end
$var wire 1 R CounterX[8]~output_o $end
$var wire 1 S CounterX[9]~output_o $end
$var wire 1 T CounterY[0]~output_o $end
$var wire 1 U CounterY[1]~output_o $end
$var wire 1 V CounterY[2]~output_o $end
$var wire 1 W CounterY[3]~output_o $end
$var wire 1 X CounterY[4]~output_o $end
$var wire 1 Y CounterY[5]~output_o $end
$var wire 1 Z CounterY[6]~output_o $end
$var wire 1 [ CounterY[7]~output_o $end
$var wire 1 \ CounterY[8]~output_o $end
$var wire 1 ] CounterY[9]~output_o $end
$var wire 1 ^ clk~input_o $end
$var wire 1 _ clk~inputclkctrl_outclk $end
$var wire 1 ` clk_divider|counter[15]~0_combout $end
$var wire 1 a clk_divider|clk_div~feeder_combout $end
$var wire 1 b clk_divider|clk_div~q $end
$var wire 1 c clk_divider|clk_div~clkctrl_outclk $end
$var wire 1 d hvsync|Add0~0_combout $end
$var wire 1 e hvsync|Add0~15 $end
$var wire 1 f hvsync|Add0~16_combout $end
$var wire 1 g hvsync|CounterX~2_combout $end
$var wire 1 h hvsync|Add0~17 $end
$var wire 1 i hvsync|Add0~18_combout $end
$var wire 1 j hvsync|CounterX~3_combout $end
$var wire 1 k hvsync|Equal0~0_combout $end
$var wire 1 l hvsync|Equal0~1_combout $end
$var wire 1 m hvsync|Equal0~2_combout $end
$var wire 1 n hvsync|CounterX~0_combout $end
$var wire 1 o hvsync|Add0~1 $end
$var wire 1 p hvsync|Add0~2_combout $end
$var wire 1 q hvsync|Add0~3 $end
$var wire 1 r hvsync|Add0~4_combout $end
$var wire 1 s hvsync|Add0~5 $end
$var wire 1 t hvsync|Add0~6_combout $end
$var wire 1 u hvsync|Add0~7 $end
$var wire 1 v hvsync|Add0~8_combout $end
$var wire 1 w hvsync|Add0~9 $end
$var wire 1 x hvsync|Add0~10_combout $end
$var wire 1 y hvsync|CounterX~1_combout $end
$var wire 1 z hvsync|Add0~11 $end
$var wire 1 { hvsync|Add0~12_combout $end
$var wire 1 | hvsync|Add0~13 $end
$var wire 1 } hvsync|Add0~14_combout $end
$var wire 1 ~ hvsync|vga_HS~0_combout $end
$var wire 1 !! hvsync|vga_HS~1_combout $end
$var wire 1 "! hvsync|vga_HS~q $end
$var wire 1 #! hvsync|Add1~0_combout $end
$var wire 1 $! hvsync|Add1~1 $end
$var wire 1 %! hvsync|Add1~2_combout $end
$var wire 1 &! hvsync|Add1~5 $end
$var wire 1 '! hvsync|Add1~6_combout $end
$var wire 1 (! hvsync|CounterY~2_combout $end
$var wire 1 )! hvsync|Add1~7 $end
$var wire 1 *! hvsync|Add1~8_combout $end
$var wire 1 +! hvsync|Add1~9 $end
$var wire 1 ,! hvsync|Add1~10_combout $end
$var wire 1 -! hvsync|Add1~11 $end
$var wire 1 .! hvsync|Add1~12_combout $end
$var wire 1 /! hvsync|Add1~13 $end
$var wire 1 0! hvsync|Add1~14_combout $end
$var wire 1 1! hvsync|Add1~15 $end
$var wire 1 2! hvsync|Add1~16_combout $end
$var wire 1 3! hvsync|Add1~17 $end
$var wire 1 4! hvsync|Add1~18_combout $end
$var wire 1 5! hvsync|CounterY~3_combout $end
$var wire 1 6! hvsync|Equal1~0_combout $end
$var wire 1 7! hvsync|Equal1~1_combout $end
$var wire 1 8! hvsync|Equal1~2_combout $end
$var wire 1 9! hvsync|CounterY~0_combout $end
$var wire 1 :! hvsync|Add1~3 $end
$var wire 1 ;! hvsync|Add1~4_combout $end
$var wire 1 <! hvsync|CounterY~1_combout $end
$var wire 1 =! hvsync|LessThan5~0_combout $end
$var wire 1 >! hvsync|vga_VS~0_combout $end
$var wire 1 ?! hvsync|vga_VS~1_combout $end
$var wire 1 @! hvsync|vga_VS~q $end
$var wire 1 A! hvsync|inDisplayArea~0_combout $end
$var wire 1 B! hvsync|inDisplayArea~1_combout $end
$var wire 1 C! hvsync|inDisplayArea~q $end
$var wire 1 D! vga_r~reg0feeder_combout $end
$var wire 1 E! vga_r~reg0_q $end
$var wire 1 F! vga_g~reg0feeder_combout $end
$var wire 1 G! vga_g~reg0_q $end
$var wire 1 H! vga_b~reg0feeder_combout $end
$var wire 1 I! vga_b~reg0_q $end
$var wire 1 J! hvsync|CounterX [9] $end
$var wire 1 K! hvsync|CounterX [8] $end
$var wire 1 L! hvsync|CounterX [7] $end
$var wire 1 M! hvsync|CounterX [6] $end
$var wire 1 N! hvsync|CounterX [5] $end
$var wire 1 O! hvsync|CounterX [4] $end
$var wire 1 P! hvsync|CounterX [3] $end
$var wire 1 Q! hvsync|CounterX [2] $end
$var wire 1 R! hvsync|CounterX [1] $end
$var wire 1 S! hvsync|CounterX [0] $end
$var wire 1 T! hvsync|CounterY [9] $end
$var wire 1 U! hvsync|CounterY [8] $end
$var wire 1 V! hvsync|CounterY [7] $end
$var wire 1 W! hvsync|CounterY [6] $end
$var wire 1 X! hvsync|CounterY [5] $end
$var wire 1 Y! hvsync|CounterY [4] $end
$var wire 1 Z! hvsync|CounterY [3] $end
$var wire 1 [! hvsync|CounterY [2] $end
$var wire 1 \! hvsync|CounterY [1] $end
$var wire 1 ]! hvsync|CounterY [0] $end
$var wire 1 ^! clk_divider|counter [15] $end
$var wire 1 _! clk_divider|counter [14] $end
$var wire 1 `! clk_divider|counter [13] $end
$var wire 1 a! clk_divider|counter [12] $end
$var wire 1 b! clk_divider|counter [11] $end
$var wire 1 c! clk_divider|counter [10] $end
$var wire 1 d! clk_divider|counter [9] $end
$var wire 1 e! clk_divider|counter [8] $end
$var wire 1 f! clk_divider|counter [7] $end
$var wire 1 g! clk_divider|counter [6] $end
$var wire 1 h! clk_divider|counter [5] $end
$var wire 1 i! clk_divider|counter [4] $end
$var wire 1 j! clk_divider|counter [3] $end
$var wire 1 k! clk_divider|counter [2] $end
$var wire 1 l! clk_divider|counter [1] $end
$var wire 1 m! clk_divider|counter [0] $end
$upscope $end
$upscope $end
$enddefinitions $end
#0
$dumpvars
0!
0+
0*
0)
0(
0'
0&
0%
0$
0#
0"
05
04
03
02
01
00
0/
0.
0-
0,
06
07
08
09
1:
0;
1<
0=
1>
x?
1@
1A
1B
1C
1D
0E
0F
0G
0H
0I
0J
0K
0L
0M
0N
0O
0P
0Q
0R
0S
0T
0U
0V
0W
0X
0Y
0Z
0[
0\
0]
0^
0_
1`
0a
0b
0c
1d
1e
0f
0g
0h
0i
0j
1k
0l
0m
1n
0o
0p
1q
0r
0s
0t
1u
0v
0w
0x
0y
1z
0{
0|
0}
0~
0!!
0"!
1#!
0$!
0%!
0&!
0'!
0(!
1)!
0*!
0+!
0,!
1-!
0.!
0/!
00!
11!
02!
03!
04!
05!
06!
07!
08!
09!
1:!
0;!
0<!
0=!
1>!
0?!
0@!
1A!
1B!
0C!
0D!
0E!
0F!
0G!
0H!
0I!
0S!
0R!
0Q!
0P!
0O!
0N!
0M!
0L!
0K!
0J!
0]!
0\!
0[!
0Z!
0Y!
0X!
0W!
0V!
0U!
0T!
zm!
zl!
zk!
zj!
zi!
zh!
zg!
zf!
ze!
zd!
zc!
zb!
za!
z`!
z_!
0^!
$end
#250
1!
1^
1_
1^!
1a
0`
#500
0!
0^
0_
#750
1!
1^
1_
0^!
1b
1c
1H
17
0a
1`
1C!
1S!
1J
1I
0k
1o
0d
16
1+
1H!
1F!
1D!
1p
0n
#1000
0!
0^
0_
#1250
1!
1^
1_
1^!
0b
0c
0H
07
1a
0`
#1500
0!
0^
0_
#1750
1!
1^
1_
0^!
1b
1c
1H
17
0a
1`
1I!
1G!
1E!
1R!
0S!
0J
1K
1E
1F
1G
0q
0o
1d
18
19
1;
1*
0+
0p
1q
1r
1p
1n
0r
#2000
0!
0^
0_
#2250
1!
1^
1_
1^!
0b
0c
0H
07
1a
0`
#2500
0!
0^
0_
#2750
1!
1^
1_
0^!
1b
1c
1H
17
0a
1`
1S!
1J
1o
0d
1+
0q
0p
0n
1r
#3000
0!
0^
0_
#3250
1!
1^
1_
1^!
0b
0c
0H
07
1a
0`
#3500
0!
0^
0_
#3750
1!
1^
1_
0^!
1b
1c
1H
17
0a
1`
1Q!
0R!
0S!
0J
0K
1L
1s
1q
0o
1d
1)
0*
0+
0r
1p
0s
1t
1r
0p
1n
0t
#4000
0!
0^
0_
#4250
1!
1^
1_
1^!
0b
0c
0H
07
1a
0`
#4500
0!
0^
0_
#4750
1!
1^
1_
0^!
1b
1c
1H
17
0a
1`
1S!
1J
1o
0d
1+
1p
0n
#5000
0!
0^
0_
#5250
1!
1^
1_
1^!
0b
0c
0H
07
1a
0`
#5500
0!
0^
0_
#5750
1!
1^
1_
0^!
1b
1c
1H
17
0a
1`
1R!
0S!
0J
1K
0q
0o
1d
1*
0+
0p
1s
1q
0r
1p
1n
0s
1t
1r
0t
#6000
0!
0^
0_
#6250
1!
1^
1_
1^!
0b
0c
0H
07
1a
0`
#6500
0!
0^
0_
#6750
1!
1^
1_
0^!
1b
1c
1H
17
0a
1`
1S!
1J
1o
0d
1+
0q
0p
0n
1s
0r
1t
#7000
0!
0^
0_
#7250
1!
1^
1_
1^!
0b
0c
0H
07
1a
0`
#7500
0!
0^
0_
#7750
1!
1^
1_
0^!
1b
1c
1H
17
0a
1`
1P!
0Q!
0R!
0S!
0J
0K
0L
1M
0u
0s
1q
0o
1d
1(
0)
0*
0+
0t
1r
1p
1u
1v
1t
0r
0p
1n
0v
#8000
0!
0^
0_
#8250
1!
1^
1_
1^!
0b
0c
0H
07
1a
0`
#8500
0!
0^
0_
#8750
1!
1^
1_
0^!
1b
1c
1H
17
0a
1`
1S!
1J
1o
0d
1+
1p
0n
#9000
0!
0^
0_
#9250
1!
1^
1_
1^!
0b
0c
0H
07
1a
0`
#9500
0!
0^
0_
#9750
1!
1^
1_
0^!
1b
1c
1H
17
0a
1`
1R!
0S!
0J
1K
0q
0o
1d
1*
0+
0p
1q
1r
1p
1n
0r
#10000
0!
0^
0_
#10250
1!
1^
1_
1^!
0b
0c
0H
07
1a
0`
#10500
0!
0^
0_
#10750
1!
1^
1_
0^!
1b
1c
1H
17
0a
1`
1S!
1J
1o
0d
1+
0q
0p
0n
1r
#11000
0!
0^
0_
#11250
1!
1^
1_
1^!
0b
0c
0H
07
1a
0`
#11500
0!
0^
0_
#11750
1!
1^
1_
0^!
1b
1c
1H
17
0a
1`
1Q!
0R!
0S!
0J
0K
1L
1s
1q
0o
1d
1)
0*
0+
0r
1p
0u
0s
0t
1r
0p
1n
1u
1v
1t
0v
#12000
0!
0^
0_
#12250
1!
1^
1_
1^!
0b
0c
0H
07
1a
0`
#12500
0!
0^
0_
#12750
1!
1^
1_
0^!
1b
1c
1H
17
0a
1`
1S!
1J
1o
0d
1+
1p
0n
#13000
0!
0^
0_
#13250
1!
1^
1_
1^!
0b
0c
0H
07
1a
0`
#13500
0!
0^
0_
#13750
1!
1^
1_
0^!
1b
1c
1H
17
0a
1`
1R!
0S!
0J
1K
0q
0o
1d
1*
0+
0p
1s
1q
0r
1p
1n
0u
0s
0t
1r
1u
1v
1t
0v
#14000
0!
0^
0_
#14250
1!
1^
1_
1^!
0b
0c
0H
07
1a
0`
#14500
0!
0^
0_
#14750
1!
1^
1_
0^!
1b
1c
1H
17
0a
1`
1S!
1J
1o
0d
1+
0q
0p
0n
1s
0r
0u
0t
1v
#15000
0!
0^
0_
#15250
1!
1^
1_
1^!
0b
0c
0H
07
1a
0`
#15500
0!
0^
0_
#15750
1!
1^
1_
0^!
1b
1c
1H
17
0a
1`
1O!
0P!
0Q!
0R!
0S!
0J
0K
0L
0M
1N
1~
1w
1u
1k
0s
1q
0o
1d
1'
0(
0)
0*
0+
0v
1t
1r
1p
1x
0w
0~
1v
0t
0r
0p
1n
0x
1y
0y
#16000
0!
0^
0_
#16250
1!
1^
1_
1^!
0b
0c
0H
07
1a
0`
#16500
0!
0^
0_
#16750
1!
1^
1_
0^!
1b
1c
1H
17
0a
1`
1S!
1J
0k
1o
0d
1+
1~
1p
0n
#17000
0!
0^
0_
#17250
1!
1^
1_
1^!
0b
0c
0H
07
1a
0`
#17500
0!
0^
0_
#17750
1!
1^
1_
0^!
1b
1c
1H
17
0a
1`
1R!
0S!
0J
1K
0q
0o
1d
1*
0+
0p
1q
1r
1p
1n
0r
#18000
0!
0^
0_
#18250
1!
1^
1_
1^!
0b
0c
0H
07
1a
0`
#18500
0!
0^
0_
#18750
1!
1^
1_
0^!
1b
1c
1H
17
0a
1`
1S!
1J
1o
0d
1+
0q
0p
0n
1r
#19000
0!
0^
0_
#19250
1!
1^
1_
1^!
0b
0c
0H
07
1a
0`
#19500
0!
0^
0_
#19750
1!
1^
1_
0^!
1b
1c
1H
17
0a
1`
1Q!
0R!
0S!
0J
0K
1L
1s
1q
0o
1d
1)
0*
0+
0r
1p
0s
1t
1r
0p
1n
0t
#20000
0!
0^
0_
#20250
1!
1^
1_
1^!
0b
0c
0H
07
1a
0`
#20500
0!
0^
0_
#20750
1!
1^
1_
0^!
1b
1c
1H
17
0a
1`
1S!
1J
1o
0d
1+
1p
0n
#21000
0!
0^
0_
#21250
1!
1^
1_
1^!
0b
0c
0H
07
1a
0`
#21500
0!
0^
0_
#21750
1!
1^
1_
0^!
1b
1c
1H
17
0a
1`
1R!
0S!
0J
1K
0q
0o
1d
1*
0+
0p
1s
1q
0r
1p
1n
0s
1t
1r
0t
#22000
0!
0^
0_
#22250
1!
1^
1_
1^!
0b
0c
0H
07
1a
0`
#22500
0!
0^
0_
#22750
1!
1^
1_
0^!
1b
1c
1H
17
0a
1`
1S!
1J
1o
0d
1+
0q
0p
0n
1s
0r
1t
#23000
0!
0^
0_
#23250
1!
1^
1_
1^!
0b
0c
0H
07
1a
0`
#23500
0!
0^
0_
#23750
1!
1^
1_
0^!
1b
1c
1H
17
0a
1`
1P!
0Q!
0R!
0S!
0J
0K
0L
1M
0u
0s
1q
0o
1d
1(
0)
0*
0+
0t
1r
1p
1w
1u
0v
1t
0r
0p
1n
1x
0w
1v
0x
1y
0y
#24000
0!
0^
0_
#24250
1!
1^
1_
1^!
0b
0c
0H
07
1a
0`
#24500
0!
0^
0_
#24750
1!
1^
1_
0^!
1b
1c
1H
17
0a
1`
1S!
1J
1o
0d
1+
1p
0n
#25000
0!
0^
0_
#25250
1!
1^
1_
1^!
0b
0c
0H
07
1a
0`
#25500
0!
0^
0_
#25750
1!
1^
1_
0^!
1b
1c
1H
17
0a
1`
1R!
0S!
0J
1K
0q
0o
1d
1*
0+
0p
1q
1r
1p
1n
0r
#26000
0!
0^
0_
#26250
1!
1^
1_
1^!
0b
0c
0H
07
1a
0`
#26500
0!
0^
0_
#26750
1!
1^
1_
0^!
1b
1c
1H
17
0a
1`
1S!
1J
1o
0d
1+
0q
0p
0n
1r
#27000
0!
0^
0_
#27250
1!
1^
1_
1^!
0b
0c
0H
07
1a
0`
#27500
0!
0^
0_
#27750
1!
1^
1_
0^!
1b
1c
1H
17
0a
1`
1Q!
0R!
0S!
0J
0K
1L
1s
1q
0o
1d
1)
0*
0+
0r
1p
0u
0s
0t
1r
0p
1n
1w
1u
0v
1t
1x
0w
1v
0x
1y
0y
#28000
0!
0^
0_
#28250
1!
1^
1_
1^!
0b
0c
0H
07
1a
0`
#28500
0!
0^
0_
#28750
1!
1^
1_
0^!
1b
1c
1H
17
0a
1`
1S!
1J
1o
0d
1+
1p
0n
#29000
0!
0^
0_
#29250
1!
1^
1_
1^!
0b
0c
0H
07
1a
0`
#29500
0!
0^
0_
#29750
1!
1^
1_
0^!
1b
1c
1H
17
0a
1`
1R!
0S!
0J
1K
0q
0o
1d
1*
0+
0p
1s
1q
0r
1p
1n
0u
0s
0t
1r
1w
1u
0v
1t
1x
0w
1v
0x
1y
0y
#30000
0!
0^
0_
#30250
1!
1^
1_
1^!
0b
0c
0H
07
1a
0`
#30500
0!
0^
0_
#30750
1!
1^
1_
0^!
1b
1c
1H
17
0a
1`
1S!
1J
1o
0d
1+
0q
0p
0n
1s
0r
0u
0t
1w
0v
1x
1y
#31000
0!
0^
0_
#31250
1!
1^
1_
1^!
0b
0c
0H
07
1a
0`
#31500
0!
0^
0_
#31750
1!
1^
1_
0^!
1b
1c
1H
17
0a
1`
1N!
0O!
0P!
0Q!
0R!
0S!
0J
0K
0L
0M
0N
1O
0z
0x
1l
0w
1u
1k
0s
1q
0o
1d
1&
0'
0(
0)
0*
0+
1v
1t
1r
1p
1z
1x
1{
0y
0v
0t
0r
0p
1n
0{
1y
#32000
0!
0^
0_
#32250
1!
1^
1_
1^!
0b
0c
0H
07
1a
0`
#32500
0!
0^
0_
#32750
1!
1^
1_
0^!
1b
1c
1H
17
0a
1`
1S!
1J
0k
1o
0d
1+
1p
0n
#33000
0!
0^
0_
#33250
1!
1^
1_
1^!
0b
0c
0H
07
1a
0`
#33500
0!
0^
0_
#33750
1!
1^
1_
0^!
1b
1c
1H
17
0a
1`
1R!
0S!
0J
1K
0q
0o
1d
1*
0+
0p
1q
1r
1p
1n
0r
#34000
0!
0^
0_
#34250
1!
1^
1_
1^!
0b
0c
0H
07
1a
0`
#34500
0!
0^
0_
#34750
1!
1^
1_
0^!
1b
1c
1H
17
0a
1`
1S!
1J
1o
0d
1+
0q
0p
0n
1r
#35000
0!
0^
0_
#35250
1!
1^
1_
1^!
0b
0c
0H
07
1a
0`
#35500
0!
0^
0_
#35750
1!
1^
1_
0^!
1b
1c
1H
17
0a
1`
1Q!
0R!
0S!
0J
0K
1L
1s
1q
0o
1d
1)
0*
0+
0r
1p
0s
1t
1r
0p
1n
0t
#36000
0!
0^
0_
#36250
1!
1^
1_
1^!
0b
0c
0H
07
1a
0`
#36500
0!
0^
0_
#36750
1!
1^
1_
0^!
1b
1c
1H
17
0a
1`
1S!
1J
1o
0d
1+
1p
0n
#37000
0!
0^
0_
#37250
1!
1^
1_
1^!
0b
0c
0H
07
1a
0`
#37500
0!
0^
0_
#37750
1!
1^
1_
0^!
1b
1c
1H
17
0a
1`
1R!
0S!
0J
1K
0q
0o
1d
1*
0+
0p
1s
1q
0r
1p
1n
0s
1t
1r
0t
#38000
0!
0^
0_
#38250
1!
1^
1_
1^!
0b
0c
0H
07
1a
0`
#38500
0!
0^
0_
#38750
1!
1^
1_
0^!
1b
1c
1H
17
0a
1`
1S!
1J
1o
0d
1+
0q
0p
0n
1s
0r
1t
#39000
0!
0^
0_
#39250
1!
1^
1_
1^!
0b
0c
0H
07
1a
0`
#39500
0!
0^
0_
#39750
1!
1^
1_
0^!
1b
1c
1H
17
0a
1`
1P!
0Q!
0R!
0S!
0J
0K
0L
1M
0u
0s
1q
0o
1d
1(
0)
0*
0+
0t
1r
1p
1u
1v
1t
0r
0p
1n
0v
#40000
0!
0^
0_
#40250
1!
1^
1_
1^!
0b
0c
0H
07
1a
0`
#40500
0!
0^
0_
#40750
1!
1^
1_
0^!
1b
1c
1H
17
0a
1`
1S!
1J
1o
0d
1+
1p
0n
#41000
0!
0^
0_
#41250
1!
1^
1_
1^!
0b
0c
0H
07
1a
0`
#41500
0!
0^
0_
#41750
1!
1^
1_
0^!
1b
1c
1H
17
0a
1`
1R!
0S!
0J
1K
0q
0o
1d
1*
0+
0p
1q
1r
1p
1n
0r
#42000
0!
0^
0_
#42250
1!
1^
1_
1^!
0b
0c
0H
07
1a
0`
#42500
0!
0^
0_
#42750
1!
1^
1_
0^!
1b
1c
1H
17
0a
1`
1S!
1J
1o
0d
1+
0q
0p
0n
1r
#43000
0!
0^
0_
#43250
1!
1^
1_
1^!
0b
0c
0H
07
1a
0`
#43500
0!
0^
0_
#43750
1!
1^
1_
0^!
1b
1c
1H
17
0a
1`
1Q!
0R!
0S!
0J
0K
1L
1s
1q
0o
1d
1)
0*
0+
0r
1p
0u
0s
0t
1r
0p
1n
1u
1v
1t
0v
#44000
0!
0^
0_
#44250
1!
1^
1_
1^!
0b
0c
0H
07
1a
0`
#44500
0!
0^
0_
#44750
1!
1^
1_
0^!
1b
1c
1H
17
0a
1`
1S!
1J
1o
0d
1+
1p
0n
#45000
0!
0^
0_
#45250
1!
1^
1_
1^!
0b
0c
0H
07
1a
0`
#45500
0!
0^
0_
#45750
1!
1^
1_
0^!
1b
1c
1H
17
0a
1`
1R!
0S!
0J
1K
0q
0o
1d
1*
0+
0p
1s
1q
0r
1p
1n
0u
0s
0t
1r
1u
1v
1t
0v
#46000
0!
0^
0_
#46250
1!
1^
1_
1^!
0b
0c
0H
07
1a
0`
#46500
0!
0^
0_
#46750
1!
1^
1_
0^!
1b
1c
1H
17
0a
1`
1S!
1J
1o
0d
1+
0q
0p
0n
1s
0r
0u
0t
1v
#47000
0!
0^
0_
#47250
1!
1^
1_
1^!
0b
0c
0H
07
1a
0`
#47500
0!
0^
0_
#47750
1!
1^
1_
0^!
1b
1c
1H
17
0a
1`
1O!
0P!
0Q!
0R!
0S!
0J
0K
0L
0M
1N
1w
0l
1u
1k
0s
1q
0o
1d
1'
0(
0)
0*
0+
0v
1t
1r
1p
0z
0x
0w
1v
0t
0r
0p
1n
1z
1x
1{
0y
0{
1y
#48000
0!
0^
0_
#48250
1!
1^
1_
1^!
0b
0c
0H
07
1a
0`
#48500
0!
0^
0_
#48750
1!
1^
1_
0^!
1b
1c
1H
17
0a
1`
1S!
1J
0k
1o
0d
1+
1p
0n
#49000
0!
0^
0_
#49250
1!
1^
1_
1^!
0b
0c
0H
07
1a
0`
#49500
0!
0^
0_
#49750
1!
1^
1_
0^!
1b
1c
1H
17
0a
1`
1R!
0S!
0J
1K
0q
0o
1d
1*
0+
0p
1q
1r
1p
1n
0r
#50000
0!
0^
0_
#50250
1!
1^
1_
1^!
0b
0c
0H
07
1a
0`
#50500
0!
0^
0_
#50750
1!
1^
1_
0^!
1b
1c
1H
17
0a
1`
1S!
1J
1o
0d
1+
0q
0p
0n
1r
#51000
0!
0^
0_
#51250
1!
1^
1_
1^!
0b
0c
0H
07
1a
0`
#51500
0!
0^
0_
#51750
1!
1^
1_
0^!
1b
1c
1H
17
0a
1`
1Q!
0R!
0S!
0J
0K
1L
1s
1q
0o
1d
1)
0*
0+
0r
1p
0s
1t
1r
0p
1n
0t
#52000
0!
0^
0_
#52250
1!
1^
1_
1^!
0b
0c
0H
07
1a
0`
#52500
0!
0^
0_
#52750
1!
1^
1_
0^!
1b
1c
1H
17
0a
1`
1S!
1J
1o
0d
1+
1p
0n
#53000
0!
0^
0_
#53250
1!
1^
1_
1^!
0b
0c
0H
07
1a
0`
#53500
0!
0^
0_
#53750
1!
1^
1_
0^!
1b
1c
1H
17
0a
1`
1R!
0S!
0J
1K
0q
0o
1d
1*
0+
0p
1s
1q
0r
1p
1n
0s
1t
1r
0t
#54000
0!
0^
0_
#54250
1!
1^
1_
1^!
0b
0c
0H
07
1a
0`
#54500
0!
0^
0_
#54750
1!
1^
1_
0^!
1b
1c
1H
17
0a
1`
1S!
1J
1o
0d
1+
0q
0p
0n
1s
0r
1t
#55000
0!
0^
0_
#55250
1!
1^
1_
1^!
0b
0c
0H
07
1a
0`
#55500
0!
0^
0_
#55750
1!
1^
1_
0^!
1b
1c
1H
17
0a
1`
1P!
0Q!
0R!
0S!
0J
0K
0L
1M
0u
0s
1q
0o
1d
1(
0)
0*
0+
0t
1r
1p
1w
1u
0v
1t
0r
0p
1n
0z
0x
0w
1v
1z
1x
1{
0y
0{
1y
#56000
0!
0^
0_
#56250
1!
1^
1_
1^!
0b
0c
0H
07
1a
0`
#56500
0!
0^
0_
#56750
1!
1^
1_
0^!
1b
1c
1H
17
0a
1`
1S!
1J
1o
0d
1+
1p
0n
#57000
0!
0^
0_
#57250
1!
1^
1_
1^!
0b
0c
0H
07
1a
0`
#57500
0!
0^
0_
#57750
1!
1^
1_
0^!
1b
1c
1H
17
0a
1`
1R!
0S!
0J
1K
0q
0o
1d
1*
0+
0p
1q
1r
1p
1n
0r
#58000
0!
0^
0_
#58250
1!
1^
1_
1^!
0b
0c
0H
07
1a
0`
#58500
0!
0^
0_
#58750
1!
1^
1_
0^!
1b
1c
1H
17
0a
1`
1S!
1J
1o
0d
1+
0q
0p
0n
1r
#59000
0!
0^
0_
#59250
1!
1^
1_
1^!
0b
0c
0H
07
1a
0`
#59500
0!
0^
0_
#59750
1!
1^
1_
0^!
1b
1c
1H
17
0a
1`
1Q!
0R!
0S!
0J
0K
1L
1s
1q
0o
1d
1)
0*
0+
0r
1p
0u
0s
0t
1r
0p
1n
1w
1u
0v
1t
0z
0x
0w
1v
1z
1x
1{
0y
0{
1y
#60000
0!
0^
0_
#60250
1!
1^
1_
1^!
0b
0c
0H
07
1a
0`
#60500
0!
0^
0_
#60750
1!
1^
1_
0^!
1b
1c
1H
17
0a
1`
1S!
1J
1o
0d
1+
1p
0n
#61000
0!
0^
0_
#61250
1!
1^
1_
1^!
0b
0c
0H
07
1a
0`
#61500
0!
0^
0_
#61750
1!
1^
1_
0^!
1b
1c
1H
17
0a
1`
1R!
0S!
0J
1K
0q
0o
1d
1*
0+
0p
1s
1q
0r
1p
1n
0u
0s
0t
1r
1w
1u
0v
1t
0z
0x
0w
1v
1z
1x
1{
0y
0{
1y
#62000
0!
0^
0_
#62250
1!
1^
1_
1^!
0b
0c
0H
07
1a
0`
#62500
0!
0^
0_
#62750
1!
1^
1_
0^!
1b
1c
1H
17
0a
1`
1S!
1J
1o
0d
1+
0q
0p
0n
1s
0r
0u
0t
1w
0v
0z
0x
1{
0y
#63000
0!
0^
0_
#63250
1!
1^
1_
1^!
0b
0c
0H
07
1a
0`
#63500
0!
0^
0_
#63750
1!
1^
1_
0^!
1b
1c
1H
17
0a
1`
1M!
0N!
0O!
0P!
0Q!
0R!
0S!
0J
0K
0L
0M
0N
0O
1P
1|
1z
1x
0w
1u
1k
0s
1q
0o
1d
1%
0&
0'
0(
0)
0*
0+
0{
1v
1t
1r
1p
0|
0x
1}
1{
1y
0v
0t
0r
0p
1n
0}
0y
#64000
0!
0^
0_
#64250
1!
1^
1_
1^!
0b
0c
0H
07
1a
0`
#64500
0!
0^
0_
#64750
1!
1^
1_
0^!
1b
1c
1H
17
0a
1`
1S!
1J
0k
1o
0d
1+
1p
0n
#65000
0!
0^
0_
#65250
1!
1^
1_
1^!
0b
0c
0H
07
1a
0`
#65500
0!
0^
0_
#65750
1!
1^
1_
0^!
1b
1c
1H
17
0a
1`
1R!
0S!
0J
1K
0q
0o
1d
1*
0+
0p
1q
1r
1p
1n
0r
#66000
0!
0^
0_
#66250
1!
1^
1_
1^!
0b
0c
0H
07
1a
0`
#66500
0!
0^
0_
#66750
1!
1^
1_
0^!
1b
1c
1H
17
0a
1`
1S!
1J
1o
0d
1+
0q
0p
0n
1r
#67000
0!
0^
0_
#67250
1!
1^
1_
1^!
0b
0c
0H
07
1a
0`
#67500
0!
0^
0_
#67750
1!
1^
1_
0^!
1b
1c
1H
17
0a
1`
1Q!
0R!
0S!
0J
0K
1L
1s
1q
0o
1d
1)
0*
0+
0r
1p
0s
1t
1r
0p
1n
0t
#68000
0!
0^
0_
#68250
1!
1^
1_
1^!
0b
0c
0H
07
1a
0`
#68500
0!
0^
0_
#68750
1!
1^
1_
0^!
1b
1c
1H
17
0a
1`
1S!
1J
1o
0d
1+
1p
0n
#69000
0!
0^
0_
#69250
1!
1^
1_
1^!
0b
0c
0H
07
1a
0`
#69500
0!
0^
0_
#69750
1!
1^
1_
0^!
1b
1c
1H
17
0a
1`
1R!
0S!
0J
1K
0q
0o
1d
1*
0+
0p
1s
1q
0r
1p
1n
0s
1t
1r
0t
#70000
0!
0^
0_
#70250
1!
1^
1_
1^!
0b
0c
0H
07
1a
0`
#70500
0!
0^
0_
